﻿Key;Title;Description;L1;L2;L3;L4;L1;L2;L3;L4;Hierarchy key
T001176  ;Totaal Stationaire en mobiele bronnen;Onder de stationaire bronnen vallen onder andere de vuurhaarden (zoals ovens, kachels en ketels), industriële processen en overige niet-mobiele activiteiten zoals het gebruik van spuitbussen en verf en ontleding van mest (ammoniak). Mobiele bronnen zijn transportmiddelen en mobiele werktuigen met een verbrandingsmotor, inclusief buitenlandse transportmiddelen.;Totaal Stationaire en mobiele bronnen;;;;1;;;;1
A025447  ;Stationaire bronnen, totaal;Onder de stationaire bronnen vallen onder andere de vuurhaarden (zoals ovens, kachels en ketels), industriële processen en overige niet-mobiele activiteiten zoals het gebruik van spuitbussen en verf en ontleding van mest (ammoniak).;Totaal Stationaire en mobiele bronnen;Stationaire bronnen, totaal;;;1;1;;;11
800044;Energiesector;"Deze categorie is een samentelling van categorieën:
06 Winning van aardolie en aardgas
192 Aardolie-industrie
35 Energiebedrijven";Totaal Stationaire en mobiele bronnen;Stationaire bronnen, totaal;Energiesector;;1;1;1;;111
305800;06 Winning van aardolie en aardgas;Winning van aardolie en aardgas;Totaal Stationaire en mobiele bronnen;Stationaire bronnen, totaal;Energiesector;06 Winning van aardolie en aardgas;1;1;1;1;1111
320300;192 Aardolie-industrie;"Aardolie-industrie
Deze groep omvat:
Aardolieraffinage:
- vervaardiging van motorbrandstoffen: benzine, kerosine, enz.
- productie van overige brandstoffen: lichte en zware stookolie, raffinaderijgassen als ethaan, propaan, butaan, enz.
- vervaardiging van producten voor de petrochemische industrie en voor de vervaardiging van wegdekken
- vervaardiging van overige aardolieproducten: white spirit, vaseline, paraffine, enz.
Aardolieverwerking (geen -raffinage):
- vervaardiging van smeeroliën en vetten uit aardolie
- recycling van afgewerkte olie
- vervaardiging van aardolieproducten uit afvalolie.";Totaal Stationaire en mobiele bronnen;Stationaire bronnen, totaal;Energiesector;192 Aardolie-industrie;1;1;1;2;1112
346700;35 Energiebedrijven;Productie en distributie van en handel in elektriciteit, aardgas, stoom en gekoelde lucht;Totaal Stationaire en mobiele bronnen;Stationaire bronnen, totaal;Energiesector;35 Energiebedrijven;1;1;1;3;1113
800045;Nijverheid (geen energiesector);"Deze categorie is een samentelling van categorieën:
B Winning van delfstoffen (geen 06 Winning van aardolie en aardgas)
C Industrie (geen 192 Aardolie-industrie)
F Bouwnijverheid";Totaal Stationaire en mobiele bronnen;Stationaire bronnen, totaal;Nijverheid (geen energiesector);;1;1;2;;112
320705;20-21 Chemie en farmaceutische industrie;"Deze categorie is een samentelling van categorieën:
20 Vervaardiging van chemische producten
21 Vervaardiging van farmaceutische grondstoffen en producten. 
";Totaal Stationaire en mobiele bronnen;Stationaire bronnen, totaal;Nijverheid (geen energiesector);20-21 Chemie en farmaceutische industrie;1;1;2;1;1121
328100;24 Basismetaalindustrie;Vervaardiging van metalen in primaire vorm. ;Totaal Stationaire en mobiele bronnen;Stationaire bronnen, totaal;Nijverheid (geen energiesector);24 Basismetaalindustrie;1;1;2;2;1122
A025441  ;Overige industrie;"Deze categorie is een samentelling van categorieën:
10-12 Voedings-, genotmiddelenindustrie
13-15 Textiel-, kleding-, lederindustrie
16 Houtindustrie
17-18 Papier- en grafische industrie
29-30 Transportmiddelenindustrie
25-28 Metaalproducten- en machine-industrie
22, 31-33 Overige industrie";Totaal Stationaire en mobiele bronnen;Stationaire bronnen, totaal;Nijverheid (geen energiesector);Overige industrie;1;1;2;3;1123
350000;F Bouwnijverheid;"Bouwnijverheid
Deze sectie omvat:
- algemene en gespecialiseerde bouwkundige en civieltechnische werken, de bouwinstallatie en de afwerking van gebouwen.
Zij omvat ook nieuwbouw, reparatie, aan- en verbouwwerkzaamheden, het optrekken van geprefabriceerde gebouwen of constructies ter plaatse en van tijdelijke bouwwerken.

Onder algemene bouw valt de bouw van woningen, kantoren, winkels en andere vormen van burgerlijke- en utiliteitsbouw enzovoort of de bouw of aanleg van zware constructies als autowegen, straten, bruggen, tunnels, spoorwegen, vliegvelden, havens en andere waterbouwkundige projecten, irrigatiesystemen, rioleringen, industriële installaties, pijpleidingen en elektriciteitsleidingen, sportvoorzieningen enzovoort. Deze werkzaamheden kunnen voor eigen rekening of voor een vast bedrag of op contractbasis worden uitgevoerd. Een deel van de werkzaamheden of soms zelfs alle uitvoerende werkzaamheden kunnen worden uitbesteed aan onderaannemers.

Gespecialiseerde bouw omvat de bouw of aanleg van een gedeelte van bouwwerken en van civieltechnische werken of de hiervoor vereiste voorbereidende werkzaamheden. Er is gewoonlijk sprake van gespecialiseerde werkzaamheden ten behoeve van diverse bouwwerken, waarvoor specifieke ervaring of een speciale uitrusting nodig is. Het heien, leggen van funderingen, boren van waterputten, de cascobouw, het storten van beton, metselen, zetten van natuursteen, de bouw van steigers, dakbedekking enzovoort worden hiertoe gerekend. Gespecialiseerde bouwkundige werkzaamheden worden meestal aan onderaannemers uitbesteed, maar vooral reparaties worden in de bouw rechtstreeks voor de eigenaar van het onroerend goed uitgevoerd.

De bouwinstallatie omvat de installatie van alle voorzieningen waardoor een bouwwerk als zodanig zijn functie kan vervullen. Deze werkzaamheden worden meestal op de bouwplaats zelf verricht, hoewel bepaalde gedeelten ervan in een werkplaats kunnen worden uitgevoerd. Inbegrepen zijn loodgieterswerk, de installatie van verwarmings- en klimaatregelingssystemen, alarmsystemen en andere elektrische apparatuur, sprinklerinstallaties, liften en roltrappen enzovoort. Ook vallen hieronder isolatiewerkzaamheden (vochtwering, warmte- en geluidsisolatie), het aanbrengen van metalen beplating, de installatie van commerciële koelapparatuur, verlichtings- en signaleringssystemen voor wegen, spoorwegen, luchthavens, havens enzovoort. Het uitvoeren van reparaties in verband met deze activiteiten is ook inbegrepen.

De afwerking van gebouwen omvat werkzaamheden die zijn gericht op de afwerking of voltooiing van een bouwwerk, zoals glaszetten, stukadoorswerk, schilderen, sauzen, het aanbrengen van vloer- of wandtegels of van andere bekleding of bedekking zoals parket, tapijt, behang enzovoort, schuren van vloeren, aftimmeren, geluidstechnische werkzaamheden enzovoort. Het uitvoeren van reparaties in verband met deze activiteiten is ook inbegrepen.

Deze sectie omvat niet:
- de bouw of installatie van industriële apparatuur en machines (bijvoorbeeld de installatie van industriële ovens, turbines enzovoort)
(sectie C)
- het optrekken van volledige geprefabriceerde gebouwen of bouwwerken van zelf vervaardigde onderdelen wordt ingedeeld bij de toepasselijke rubriek van de sectie Industrie, afhankelijk van het materiaal waaruit deze voornamelijk bestaan. Indien dit echter beton is, wordt deze activiteit in deze afdeling ingedeeld.";Totaal Stationaire en mobiele bronnen;Stationaire bronnen, totaal;Nijverheid (geen energiesector);F Bouwnijverheid;1;1;2;4;1124
1050010;Particulier huishouden;Eén of meer personen die samen een woonruimte bewonen en zichzelf, dus niet-bedrijfsmatig, voorzien in de dagelijkse levensbehoeften.;Totaal Stationaire en mobiele bronnen;Stationaire bronnen, totaal;Particulier huishouden;;1;1;3;;113
800051;A,E,G-U Overige sectoren (stationair);"Deze categorie is een samentelling van categorieën:
A Landbouw, bosbouw en visserij
E Waterbedrijven en afvalbeheer
G-U Dienstverlening";Totaal Stationaire en mobiele bronnen;Stationaire bronnen, totaal;A,E,G-U Overige sectoren (stationair);;1;1;4;;114
301100;01 Landbouw (stationaire bronnen);Landbouw, jacht en dienstverlening voor de landbouw en jacht;Totaal Stationaire en mobiele bronnen;Stationaire bronnen, totaal;A,E,G-U Overige sectoren (stationair);01 Landbouw (stationaire bronnen);1;1;4;1;1141
A025446  ;Diensten, afval en water;"E Waterleidingbedrijven en afvalbeheer. 
G-U Commerciële en niet-commerciële dienstverlening.
";Totaal Stationaire en mobiele bronnen;Stationaire bronnen, totaal;A,E,G-U Overige sectoren (stationair);Diensten, afval en water;1;1;4;2;1142
A025421  ;"Mobiele bronnen; totaal";"Mobiele bronnen zijn transportmiddelen en mobiele werktuigen, exclusief zeevaart, internationale binnenvaart en internationale luchtvaart, inclusief defensie-activiteiten. Berekeningen op basis van het energieverbruik volgens de Nederlandse Energiehuishouding (CBS-NEH).
";Totaal Stationaire en mobiele bronnen;"Mobiele bronnen; totaal";;;1;2;;;12
A025422  ;Vervoer;"Alle vervoer van personen en goederen over rail, weg, water en door de lucht, exclusief zeevaart, internationale binnenvaart, internationale luchtvaart en vervoer op het eigen bedrijfsterrein.
";Totaal Stationaire en mobiele bronnen;"Mobiele bronnen; totaal";Vervoer;;1;2;1;;121
A025423  ;Railverkeer;"Alle vervoer van personen en goederen door de dieseltractie van de spoorwegen. Vervoer op het eigen bedrijfsterrein valt hier niet onder.
";Totaal Stationaire en mobiele bronnen;"Mobiele bronnen; totaal";Vervoer;Railverkeer;1;2;1;1;1211
A025424  ;Wegverkeer;"Alle vervoer van personen en goederen via de openbare weg. Vervoer op het eigen bedrijfsterrein valt hier niet onder. Berekeningen op basis van het energieverbruik volgens de Nederlandse Energiehuishouding (/""/fuel sold/""/).
";Totaal Stationaire en mobiele bronnen;"Mobiele bronnen; totaal";Vervoer;Wegverkeer;1;2;1;2;1212
A025425  ;Scheepvaart;"Alle vervoer van personen en goederen via waterwegen, inclusief recreatievaart, exclusief zeevaart en internationale binnenvaart. Visserij valt hier niet onder. Emissie-berekeningen op basis van het energieverbruik volgens de Nederlandse Energiehuishouding (CBS-NEH).
";Totaal Stationaire en mobiele bronnen;"Mobiele bronnen; totaal";Vervoer;Scheepvaart;1;2;1;3;1213
A025428  ;Luchtvaart;"Alle vervoer van personen en goederen via de lucht. Het betreft hier alleen binnenlandse vluchten. Berekeningen op basis van het energieverbruik van de Nederlandse Energiehuishouding (CBS-NEH).
";Totaal Stationaire en mobiele bronnen;"Mobiele bronnen; totaal";Vervoer;Luchtvaart;1;2;1;4;1214
A025429  ;Overige mobiele bronnen, totaal;"Visserij (vissersschepen) en werktuigen met een verbrandingsmotor hieronder vallen bijvoorbeeld landbouwtrekkers, vorkheftrucks, kranen en bouwmachines. 
Visserij-emissies berekend op basis van brandstofleveringen (NEH).
";Totaal Stationaire en mobiele bronnen;"Mobiele bronnen; totaal";Overige mobiele bronnen, totaal;;1;2;2;;122
A025430  ;Landbouw (mobiele bronnen);"Deze post bevat mobiele werktuigen, voornamelijk landbouwtrekkers, inclusief van loonwerkers en verhuurbedrijven.
";Totaal Stationaire en mobiele bronnen;"Mobiele bronnen; totaal";Overige mobiele bronnen, totaal;Landbouw (mobiele bronnen);1;2;2;1;1221
A025431  ;Visserij;"Emissies berekend op basis van brandstofleveringen volgens de Nederlandse Energiehuishouding (CBS-NEH).
";Totaal Stationaire en mobiele bronnen;"Mobiele bronnen; totaal";Overige mobiele bronnen, totaal;Visserij;1;2;2;2;1222
A025432  ;Defensie-activiteiten;"Marineschepen en militaire vliegtuigen, ook voor internationale operaties. De emissies zijn berekend op basis van de brandstofleveringen volgens de Nederlandse Energiehuishouding.
";Totaal Stationaire en mobiele bronnen;"Mobiele bronnen; totaal";Overige mobiele bronnen, totaal;Defensie-activiteiten;1;2;2;3;1223
A025433  ;Overige sectoren (mobiele bronnen);"Werktuigen met een verbrandingsmotor buiten de landbouwsector. Hieronder vallen bijvoorbeeld vorkheftrucks, kranen en bouwmachines.

";Totaal Stationaire en mobiele bronnen;"Mobiele bronnen; totaal";Overige mobiele bronnen, totaal;Overige sectoren (mobiele bronnen);1;2;2;4;1224
